{
  "name": "base",
  "override_attributes": {
    "openssh": {
      "server": {
        "permit_root_login": "no",
        "password_authentication": "no"
      }
    }
  },
  "run_list": [
    "recipe[apt]",
    "recipe[base]",
    "recipe[openssh]",
    "recipe[ssh_known_hosts]"
  ]
}
